{
    "/api/*": {
      "target": "https://api.beta.tab.com.au",
      "secure": false,
      "logLevel": "debug",
      "pathRewrite": {
        "^/api": ""
      },
      "changeOrigin": true
    }
  }